{
  "users": [
    {
      "email": "felipercmarques@gmail.com",
      "password": "$2a$10$KcUI//bpvjhA0QjXM.2j6eWw3uSkBU1V2B4S2c1yvqdY3eyvYJ0Ge",
      "username": "a",
      "token": "eyJhbGciOiJIUzI1NiIsInR5cCI6IkpXVCJ9.eyJlbWFpbCI6ImZlbGlwZXJjbWFhcnF1ZXNAZ21haWwuY29tIiwiaWF0IjoxNjI2OTExOTc1LCJleHAiOjE2MjY5MTU1NzUsInN1YiI6IjIifQ.9tNRUziOr-6a8K9ZDtKLV9lUCMbS0Y-N2xFw2FFOM6Q",
      "id": 1
    },
    {
      "email": "234141@asafa.com",
      "password": "$2a$10$eCAnbBHfmkNWJiwchkGwc.y9K4cZ/orvloDJ4T.vJdBaK4UVLdNiW",
      "username": "a3r1raf",
      "token": "eyJhbGciOiJIUzI1NiIsInR5cCI6IkpXVCJ9.eyJlbWFpbCI6ImZlbGlwZXJjbWFycXVlc0BnbWFpbC5jb20iLCJpYXQiOjE2MjY5MTIwNjQsImV4cCI6MTYyNjkxNTY2NCwic3ViIjoiMSJ9.A3SSJ1yIZ2G0WCgUvfRwkWwz_kRNkDrGf0dC5L2S4Z4",
      "id": 2
    },
    {
      "email": "123@123.com",
      "password": "$2a$10$wkf9RbtYKeGfMUMXrh9gQOb1kxxDGj8MmVl6Mj0D28BOBz6lOa0SS",
      "username": "a123",
      "token": "",
      "id": 3
    }
  ]
}